…
There are 46 opened issues in "rstudio/ramrkdown", var `comment_count` indicates the count of comments of an issue


```r
grouped_reactions <- dplyr::group_by(reactions, issue_number) %>% 
  dplyr::summarise(comment_count = n() - 1L)
grouped_reactions
```

```
## # A tibble: 46 x 2
##    issue_number comment_count
##           <int>         <int>
##  1          139             1
##  2          316             8
##  3          450             2
##  4          455             6
##  5          457             3
##  6          499             2
##  7          502             0
##  8          656             3
##  9          664             1
## 10          701            13
## # ... with 36 more rows
```
…
